[gd_scene load_steps=55 format=1]

[ext_resource path="res://scripts/map1.gd" type="Script" id=1]
[ext_resource path="res://grassdirt-small.png" type="Texture" id=2]
[ext_resource path="res://amulet_run_tileset.xml" type="TileSet" id=3]
[ext_resource path="res://scenes/white_horse.tscn" type="PackedScene" id=4]
[ext_resource path="res://scenes/brown_horse.tscn" type="PackedScene" id=5]
[ext_resource path="res://scenes/chicken.tscn" type="PackedScene" id=6]
[ext_resource path="res://scenes/player.tscn" type="PackedScene" id=7]
[ext_resource path="res://scenes/spawn_locations.tscn" type="PackedScene" id=8]
[ext_resource path="res://DarkWinds_0.ogg" type="AudioStream" id=9]
[ext_resource path="res://sounds/Footstep_Dirt_00.smp" type="Sample" id=10]
[ext_resource path="res://sounds/Footstep_Dirt_01.smp" type="Sample" id=11]
[ext_resource path="res://sounds/Footstep_Dirt_02.smp" type="Sample" id=12]
[ext_resource path="res://sounds/Footstep_Dirt_03.smp" type="Sample" id=13]
[ext_resource path="res://sounds/Footstep_Dirt_04.smp" type="Sample" id=14]
[ext_resource path="res://sounds/Footstep_Dirt_05.smp" type="Sample" id=15]
[ext_resource path="res://sounds/Footstep_Dirt_06.smp" type="Sample" id=16]
[ext_resource path="res://sounds/Footstep_Dirt_07.smp" type="Sample" id=17]
[ext_resource path="res://sounds/Footstep_Dirt_08.smp" type="Sample" id=18]
[ext_resource path="res://sounds/Footstep_Dirt_09.smp" type="Sample" id=19]
[ext_resource path="res://sounds/Footstep_Water_00.smp" type="Sample" id=20]
[ext_resource path="res://sounds/Footstep_Water_01.smp" type="Sample" id=21]
[ext_resource path="res://sounds/Footstep_Water_02.smp" type="Sample" id=22]
[ext_resource path="res://sounds/Footstep_Water_03.smp" type="Sample" id=23]
[ext_resource path="res://sounds/Footstep_Water_04.smp" type="Sample" id=24]
[ext_resource path="res://sounds/Footstep_Water_05.smp" type="Sample" id=25]
[ext_resource path="res://sounds/Footstep_Water_06.smp" type="Sample" id=26]
[ext_resource path="res://sounds/Footstep_Water_07.smp" type="Sample" id=27]
[ext_resource path="res://sounds/Goblin_00.smp" type="Sample" id=28]
[ext_resource path="res://sounds/Goblin_01.smp" type="Sample" id=29]
[ext_resource path="res://sounds/Goblin_02.smp" type="Sample" id=30]
[ext_resource path="res://sounds/Goblin_03.smp" type="Sample" id=31]
[ext_resource path="res://sounds/Goblin_04.smp" type="Sample" id=32]
[ext_resource path="res://sounds/Inventory_Open_00.smp" type="Sample" id=33]
[ext_resource path="res://sounds/Inventory_Open_01.smp" type="Sample" id=34]
[ext_resource path="res://sounds/Jingle_Achievement_00.smp" type="Sample" id=35]
[ext_resource path="res://sounds/Jingle_Lose_00.smp" type="Sample" id=36]
[ext_resource path="res://sounds/Jingle_Win_00.smp" type="Sample" id=37]
[ext_resource path="res://sounds/Menu_Select_00.smp" type="Sample" id=38]
[ext_resource path="res://sounds/Pickup_Gold_00.smp" type="Sample" id=39]
[ext_resource path="res://sounds/Pickup_Gold_01.smp" type="Sample" id=40]
[ext_resource path="res://sounds/Pickup_Gold_02.smp" type="Sample" id=41]
[ext_resource path="res://sounds/Pickup_Gold_03.smp" type="Sample" id=42]
[ext_resource path="res://sounds/Pickup_Gold_04.smp" type="Sample" id=43]
[ext_resource path="res://sounds/Spell_00.smp" type="Sample" id=44]
[ext_resource path="res://sounds/Spell_01.smp" type="Sample" id=45]
[ext_resource path="res://sounds/Spell_02.smp" type="Sample" id=46]
[ext_resource path="res://sounds/Spell_03.smp" type="Sample" id=47]
[ext_resource path="res://sounds/Spell_04.smp" type="Sample" id=48]
[ext_resource path="res://sounds/Trap_00.smp" type="Sample" id=49]
[ext_resource path="res://sounds/Trap_01.smp" type="Sample" id=50]
[ext_resource path="res://sounds/Trap_02.smp" type="Sample" id=51]
[ext_resource path="res://scenes/HUD.tscn" type="PackedScene" id=52]
[ext_resource path="res://scenes/spawn_clouds.tscn" type="PackedScene" id=53]

[sub_resource type="SampleLibrary" id=1]

samples/Footstep_Dirt_00 = {
"db": 0.0,
"pitch": 1.0,
"priority": 0,
"sample": ExtResource( 10 )
}
samples/Footstep_Dirt_01 = {
"db": 0.0,
"pitch": 1.0,
"priority": 0,
"sample": ExtResource( 11 )
}
samples/Footstep_Dirt_02 = {
"db": 0.0,
"pitch": 1.0,
"priority": 0,
"sample": ExtResource( 12 )
}
samples/Footstep_Dirt_03 = {
"db": 0.0,
"pitch": 1.0,
"priority": 0,
"sample": ExtResource( 13 )
}
samples/Footstep_Dirt_04 = {
"db": 0.0,
"pitch": 1.0,
"priority": 0,
"sample": ExtResource( 14 )
}
samples/Footstep_Dirt_05 = {
"db": 0.0,
"pitch": 1.0,
"priority": 0,
"sample": ExtResource( 15 )
}
samples/Footstep_Dirt_06 = {
"db": 0.0,
"pitch": 1.0,
"priority": 0,
"sample": ExtResource( 16 )
}
samples/Footstep_Dirt_07 = {
"db": 0.0,
"pitch": 1.0,
"priority": 0,
"sample": ExtResource( 17 )
}
samples/Footstep_Dirt_08 = {
"db": 0.0,
"pitch": 1.0,
"priority": 0,
"sample": ExtResource( 18 )
}
samples/Footstep_Dirt_09 = {
"db": 0.0,
"pitch": 1.0,
"priority": 0,
"sample": ExtResource( 19 )
}
samples/Footstep_Water_00 = {
"db": 0.0,
"pitch": 1.0,
"priority": 0,
"sample": ExtResource( 20 )
}
samples/Footstep_Water_01 = {
"db": 0.0,
"pitch": 1.0,
"priority": 0,
"sample": ExtResource( 21 )
}
samples/Footstep_Water_02 = {
"db": 0.0,
"pitch": 1.0,
"priority": 0,
"sample": ExtResource( 22 )
}
samples/Footstep_Water_03 = {
"db": 0.0,
"pitch": 1.0,
"priority": 0,
"sample": ExtResource( 23 )
}
samples/Footstep_Water_04 = {
"db": 0.0,
"pitch": 1.0,
"priority": 0,
"sample": ExtResource( 24 )
}
samples/Footstep_Water_05 = {
"db": 0.0,
"pitch": 1.0,
"priority": 0,
"sample": ExtResource( 25 )
}
samples/Footstep_Water_06 = {
"db": 0.0,
"pitch": 1.0,
"priority": 0,
"sample": ExtResource( 26 )
}
samples/Footstep_Water_07 = {
"db": 0.0,
"pitch": 1.0,
"priority": 0,
"sample": ExtResource( 27 )
}
samples/Goblin_00 = {
"db": 0.0,
"pitch": 1.0,
"priority": 0,
"sample": ExtResource( 28 )
}
samples/Goblin_01 = {
"db": 0.0,
"pitch": 1.0,
"priority": 0,
"sample": ExtResource( 29 )
}
samples/Goblin_02 = {
"db": 0.0,
"pitch": 1.0,
"priority": 0,
"sample": ExtResource( 30 )
}
samples/Goblin_03 = {
"db": 0.0,
"pitch": 1.0,
"priority": 0,
"sample": ExtResource( 31 )
}
samples/Goblin_04 = {
"db": 0.0,
"pitch": 1.0,
"priority": 0,
"sample": ExtResource( 32 )
}
samples/Inventory_Open_00 = {
"db": 0.0,
"pitch": 1.0,
"priority": 0,
"sample": ExtResource( 33 )
}
samples/Inventory_Open_01 = {
"db": 0.0,
"pitch": 1.0,
"priority": 0,
"sample": ExtResource( 34 )
}
samples/Jingle_Achievement_00 = {
"db": 0.0,
"pitch": 1.0,
"priority": 0,
"sample": ExtResource( 35 )
}
samples/Jingle_Lose_00 = {
"db": 0.0,
"pitch": 1.0,
"priority": 0,
"sample": ExtResource( 36 )
}
samples/Jingle_Win_00 = {
"db": 0.0,
"pitch": 1.0,
"priority": 0,
"sample": ExtResource( 37 )
}
samples/Menu_Select_00 = {
"db": 0.0,
"pitch": 1.0,
"priority": 0,
"sample": ExtResource( 38 )
}
samples/Pickup_Gold_00 = {
"db": 0.0,
"pitch": 1.0,
"priority": 0,
"sample": ExtResource( 39 )
}
samples/Pickup_Gold_01 = {
"db": 0.0,
"pitch": 1.0,
"priority": 0,
"sample": ExtResource( 40 )
}
samples/Pickup_Gold_02 = {
"db": 0.0,
"pitch": 1.0,
"priority": 0,
"sample": ExtResource( 41 )
}
samples/Pickup_Gold_03 = {
"db": 0.0,
"pitch": 1.0,
"priority": 0,
"sample": ExtResource( 42 )
}
samples/Pickup_Gold_04 = {
"db": 0.0,
"pitch": 1.0,
"priority": 0,
"sample": ExtResource( 43 )
}
samples/Spell_00 = {
"db": 0.0,
"pitch": 1.0,
"priority": 0,
"sample": ExtResource( 44 )
}
samples/Spell_01 = {
"db": 0.0,
"pitch": 1.0,
"priority": 0,
"sample": ExtResource( 45 )
}
samples/Spell_02 = {
"db": 0.0,
"pitch": 1.0,
"priority": 0,
"sample": ExtResource( 46 )
}
samples/Spell_03 = {
"db": 0.0,
"pitch": 1.0,
"priority": 0,
"sample": ExtResource( 47 )
}
samples/Spell_04 = {
"db": 0.0,
"pitch": 1.0,
"priority": 0,
"sample": ExtResource( 48 )
}
samples/Trap_00 = {
"db": 0.0,
"pitch": 1.0,
"priority": 0,
"sample": ExtResource( 49 )
}
samples/Trap_01 = {
"db": 0.0,
"pitch": 1.0,
"priority": 0,
"sample": ExtResource( 50 )
}
samples/Trap_02 = {
"db": 0.0,
"pitch": 1.0,
"priority": 0,
"sample": ExtResource( 51 )
}

[node name="Node2D" type="Node2D"]

script/script = ExtResource( 1 )

[node name="background" type="Sprite" parent="."]

transform/pos = Vector2( 2.78955, 0 )
texture = ExtResource( 2 )
region = true
region_rect = Rect2( 0, 0, 16384, 16384 )

[node name="TileMap" type="TileMap" parent="."]

transform/pos = Vector2( -233.203, 25.4386 )
mode = 0
tile_set = ExtResource( 3 )
cell/size = Vector2( 32, 32 )
cell/quadrant_size = 16
cell/custom_transform = Matrix32( 1, 0, 0, 1, 0, 0 )
cell/half_offset = 2
cell/tile_origin = 0
cell/y_sort = false
collision/use_kinematic = true
collision/friction = 1.0
collision/bounce = 0.0
collision/layers = 1
collision/mask = 1
occluder/light_mask = 1
tile_data = IntArray( -10551292, 318, -10551291, 35, -10551290, 35, -10551289, 35, -10551288, 35, -10551287, 175, -10485756, 305, -10485755, 22, -10485754, 22, -10485753, 22, -10485752, 22, -10485751, 162, -10420219, 298, -10420218, 298, -10420217, 298, -10420216, 298, -10354683, 298, -10354682, 260, -10354681, 58, -10354680, 298, -5570617, 0, -3407870, 121, -3407869, 0, -3407868, 0, -3407864, 219, -3407863, 141, -3407862, 239, -3407861, 239, -3342333, 0, -3342332, 0, -3342327, 199, -3342326, 119, -3342325, 281, -3276799, 291, -3276797, 131, -3276796, 0, -3276792, 203, -3276791, 141, -3276790, 61, -3211263, 311, -3211261, 131, -3211260, 131, -3211259, 121, -3211255, 182, -3211254, 102, -3211253, 263, -3145727, 300, -3145725, 131, -3145724, 131, -3145719, 149, -3145718, 70, -3080189, 0, -3080188, 0, -3014653, 0, -3014652, 0, -2883585, 69, -2949120, 231, -2949118, 80, -2949117, 0, -2949116, 0, -2818053, 79, -2818049, 110, -2883584, 271, -2883581, 0, -2883580, 0, -2883577, 79, -2818045, 0, -2818044, 0, -2818034, 7, -2752509, 7, -2752508, 0, -2752500, 80, -2752499, 0, -2752498, 0, -2621441, 79, -2686975, 121, -2686973, 0, -2686972, 0, -2686964, 0, -2686963, 0, -2621437, 0, -2621436, 7, -2621430, 79, -2621429, 7, -2621428, 0, -2555901, 0, -2555900, 0, -2555894, 0, -2555893, 0, -2490367, 121, -2490365, 0, -2490364, 0, -2490359, 0, -2490358, 0, -2359300, 80, -2359297, 79, -2424829, 0, -2424828, 0, -2424827, 80, -2424824, 0, -2424823, 0, -2293764, 7, -2293763, 0, -2293762, 0, -2293761, 0, -2359296, 0, -2359295, 0, -2359294, 0, -2359293, 0, -2359292, 0, -2359291, 0, -2359290, 7, -2359289, 0, -2359288, 0, -2359287, 80, -2228228, 0, -2228227, 0, -2228226, 7, -2228225, 0, -2293760, 0, -2293759, 0, -2293758, 0, -2293757, 7, -2293756, 0, -2293755, 0, -2293754, 0, -2293753, 0, -2162689, 79, -2228221, 0, -2228220, 0, -2162685, 0, -2162684, 0, -2097149, 0, -2097148, 0, -2097145, 69, -2097144, 231, -2031613, 0, -2031612, 0, -2031609, 110, -2031608, 271, -1966077, 0, -1966076, 7, -1900541, 0, -1900540, 0, -1835007, 7, -1835006, 0, -1835005, 0, -1835004, 0, -1769472, 79, -1769471, 0, -1769470, 0, -1769469, 0, -1769468, 0, -1703935, 0, -1703934, 7, -1703933, 79, -1638399, 0, -1638398, 0, -1638396, 80, -1572863, 0, -1572862, 0, -1507327, 0, -1507326, 0, -1507325, 79, -1441791, 0, -1441790, 0, -1376256, 79, -1376255, 0, -1376254, 0, -1310719, 0, -1310718, 0, -1310716, 80, -1310687, 290, -1245183, 0, -1245182, 0, -1245181, 121, -1245151, 290, -1179647, 0, -1179646, 0, -1179614, 290, -1114111, 0, -1114110, 0, -1114078, 290, -1048575, 131, -1048574, 0, -1048573, 79, -1048543, 290, -1048542, 290, -983039, 131, -983038, 131, -983007, 290, -917503, 131, -917502, 131, -851967, 0, -851966, 0, -786431, 0, -786430, 0, -720895, 0, -720894, 0, -655359, 0, -655358, 0, -589823, 0, -589822, 0, -524287, 0, -524286, 0, -458751, 0, -458750, 0, -393215, 0, -393214, 0, -327679, 0, -327678, 20, -262143, 0, -262142, 0, -196607, 20, -196606, 0, -196604, 89, -131071, 0, -131070, 7, -65535, 0, -65534, 0, 1, 20, 2, 0, 131062, 48, 131066, 41, 65537, 0, 65538, 0, 196605, 118, 131073, 0, 131074, 0, 131075, 0, 131076, 20, 131077, 0, 131078, 20, 131079, 0, 131080, 0, 131081, 0, 131082, 20, 131083, 0, 131084, 0, 262140, 140, 262141, 60, 262143, 8, 196609, 0, 196610, 0, 196611, 0, 196612, 0, 196613, 0, 196614, 0, 196615, 0, 196616, 0, 196617, 20, 196618, 0, 196619, 0, 196620, 0, 327668, 9, 327670, 41, 327676, 181, 327677, 101, 262145, 80, 262155, 0, 262156, 0, 393214, 8, 327683, 66, 327684, 112, 327689, 8, 327691, 0, 327692, 0, 393219, 66, 393222, 0, 393223, 0, 393224, 0, 393225, 0, 393226, 0, 393227, 0, 393228, 0, 524277, 41, 458757, 8, 458758, 0, 458759, 7, 458760, 0, 458761, 0, 458762, 0, 458763, 0, 458764, 0, 524289, 9, 524294, 0, 524295, 0, 524298, 8, 589827, 89, 589830, 0, 589831, 0, 589832, 80, 720884, 48, 720889, 41, 655366, 0, 655367, 0, 655372, 48, 720899, 80, 720902, 0, 720903, 0, 786438, 0, 786439, 0, 786441, 89, 851974, 0, 851975, 0, 851978, 318, 851979, 18, 851980, 18, 851981, 18, 851982, 175, 917510, 0, 917511, 0, 917514, 305, 917515, 22, 917516, 22, 917517, 22, 917518, 162, 983046, 0, 983047, 0, 983051, 3, 983052, 3, 983053, 3, 1048579, 89, 1048582, 0, 1048583, 0, 1048587, 3, 1048588, 3, 1048589, 3, 1114118, 0, 1114119, 0, 1114123, 3, 1114124, 3, 1114125, 3, 1179654, 0, 1179655, 0, 1245190, 0, 1245191, 0, 1310725, 80, 1310726, 0, 1310727, 0, 1310730, 80, 1376262, 0, 1376263, 0, 1376275, 318, 1376276, 35, 1376277, 35, 1376278, 35, 1376279, 35, 1376280, 175, 1441798, 0, 1441799, 0, 1441811, 301, 1441812, 39, 1441813, 39, 1441814, 39, 1441815, 39, 1441816, 138, 1441817, 318, 1441818, 35, 1441819, 35, 1441820, 175, 1507334, 0, 1507335, 0, 1507347, 305, 1507348, 35, 1507349, 35, 1507350, 35, 1507351, 35, 1507352, 162, 1507353, 322, 1507354, 35, 1507355, 35, 1507356, 179, 1572870, 0, 1572871, 0, 1572883, 2, 1572884, 3, 1572885, 3, 1572886, 3, 1572887, 267, 1572888, 2, 1572889, 287, 1572890, 15, 1572891, 86, 1572892, 15, 1638406, 0, 1638407, 0, 1638418, 128, 1638419, 2, 1638420, 3, 1638421, 30, 1638422, 3, 1638423, 3, 1638424, 2, 1638425, 287, 1638426, 15, 1638427, 15, 1638428, 15, 1703942, 0, 1703943, 0, 1703947, 89, 1703954, 168, 1703955, 2, 1703956, 3, 1703957, 4, 1703958, 3, 1703959, 85, 1703960, 2, 1703961, 287, 1703962, 15, 1703963, 220, 1703964, 15, 1703965, 8, 1769478, 0, 1769479, 0, 1769490, 137, 1769491, 2, 1769492, 3, 1769493, 3, 1769494, 3, 1769495, 220, 1769496, 2, 1835014, 0, 1835015, 0, 1900550, 0, 1900551, 0, 1900555, 80, 1966081, 80, 1966086, 0, 1966087, 0, 1966088, 0, 1966089, 0, 1966090, 0, 1966091, 0, 1966092, 0, 1966093, 0, 1966094, 0, 1966095, 0, 1966096, 0, 1966097, 0, 1966098, 0, 1966099, 0, 1966100, 0, 1966101, 0, 1966102, 0, 1966103, 0, 1966104, 0, 1966105, 0, 1966106, 0, 1966107, 0, 1966108, 0, 2031620, 89, 2031622, 0, 2031623, 0, 2031624, 0, 2031625, 0, 2031626, 0, 2031627, 0, 2031628, 0, 2031629, 0, 2031630, 0, 2031631, 0, 2031632, 0, 2031633, 0, 2031634, 0, 2031635, 0, 2031636, 0, 2031637, 0, 2031638, 0, 2031639, 0, 2031640, 0, 2031641, 0, 2031642, 0, 2031643, 0, 2031644, 0, 2097172, 0, 2097173, 0, 2097174, 0, 2097175, 0, 2097176, 0, 2097179, 0, 2097180, 0, 2162715, 0, 2162716, 0, 2228251, 0, 2228252, 0, 2293787, 0, 2293788, 0, 2359323, 0, 2359324, 0, 2424859, 0, 2424860, 0, 2490392, 0, 2490393, 0, 2490394, 0, 2490395, 0, 2490396, 0, 2555928, 0, 2555929, 0, 2555930, 0, 2555931, 0, 2555932, 0, 2621464, 0, 2621465, 0, 2687000, 0, 2687001, 0, 2752536, 0, 2752537, 0, 2818072, 0, 2818073, 0, 2883608, 0, 2883609, 0, 2949144, 0, 2949145, 0, 3014680, 0, 3014681, 0, 3080216, 0, 3080217, 0, 3145752, 0, 3145753, 0, 3211288, 0, 3211289, 0, 3276824, 0, 3276825, 0, 3342356, 0, 3342357, 0, 3342358, 0, 3342359, 0, 3342360, 0, 3342361, 0, 3407892, 0, 3407893, 0, 3407894, 0, 3407895, 0, 3407896, 0, 3407897, 0, 3473428, 0, 3473429, 0, 3538964, 0, 3538965, 0, 3604499, 0, 3604500, 0, 3604501, 0, 3670035, 0, 3670036, 0, 3670037, 0, 3735571, 0, 3735572, 0, 3735573, 0, 3801107, 0, 3801108, 0, 3801109, 0, 3866643, 0, 3866644, 0, 3866645, 0, 3932179, 0, 3932180, 0, 3932181, 0, 3997715, 0, 3997716, 0, 4063251, 0, 4063252, 0, 4128787, 0, 4128788, 0, 4194323, 0, 4194324, 0, 4259859, 0, 4259860, 0, 4325395, 0, 4325396, 0, 4390931, 0, 4390932, 0, 4456467, 0, 4456468, 0, 4522003, 0, 4522004, 0, 4587539, 0, 4587540, 0, 4653075, 0, 4653076, 0, 4718611, 0, 4718612, 0, 4784147, 0, 4784148, 0, 4849683, 0, 4849684, 0, 4915219, 0, 4915220, 0, 4980755, 0, 4980756, 0, 5046291, 0, 5046292, 0, 5111827, 0, 5111828, 0, 5177363, 0, 5177364, 0, 5242899, 0, 5242900, 0, 5308435, 0, 5308436, 0, 5373971, 0, 5373972, 0, 5439507, 0, 5439508, 0, 5505043, 0, 5505044, 0, 5570579, 0, 5570580, 0, 5636115, 0, 5636116, 0, 5701651, 0, 5701652, 0, 5767187, 0, 5767188, 0, 5832723, 0, 5832724, 0, 5898259, 0, 5898260, 0, 5963795, 0, 5963796, 0, 6029330, 0, 6029331, 0, 6029332, 0, 6094866, 0, 6094867, 0, 6094868, 0, 6160402, 0, 6160403, 0, 6160404, 0, 6225938, 0, 6225939, 0, 6291474, 0, 6291475, 0, 6357010, 0, 6357011, 0, 6422546, 0, 6422547, 0, 6488082, 0, 6488083, 0, 6553618, 0, 6553619, 0, 6619154, 0, 6619155, 0, 6684690, 0, 6684691, 0, 6750225, 0, 6750226, 0, 6750227, 0, 6815761, 0, 6815762, 0, 6815763, 0, 6881297, 0, 6881298, 0, 6881299, 0, 6946833, 0, 6946834, 0, 6946835, 0, 7012369, 0, 7012370, 0, 7012371, 0, 7077905, 0, 7077906, 0, 7077907, 0, 7143441, 0, 7143442, 0, 7143443, 0, 7208977, 0, 7208978, 0, 7208979, 0, 7274513, 0, 7274514, 0, 7274515, 0, 7340049, 0, 7340050, 0, 7340051, 0, 7405585, 0, 7405586, 0, 7405587, 0, 7471121, 0, 7471122, 0, 7536657, 0, 7536658, 0, 7602193, 0, 7602194, 0, 7667729, 0, 7667730, 0, 7733264, 0, 7733265, 0, 7733266, 0, 7798800, 0, 7798801, 0, 7798802, 0, 7864336, 0, 7864337, 0, 7929872, 0, 7929873, 0, 7995408, 0, 7995409, 0, 8060944, 0, 8060945, 0, 8126480, 0, 8126481, 0, 8192016, 0, 8192017, 0, 8257552, 0, 8257553, 0, 8323088, 0, 8323089, 0, 8388624, 0, 8388625, 0, 8454160, 0, 8454161, 0, 8519696, 0, 8519697, 0, 8585232, 0, 8585233, 0, 8650768, 0, 8650769, 0, 8716304, 0, 8716305, 0, 8781840, 0, 8781841, 0, 8847376, 0, 8847377, 0, 8912912, 0, 8912913, 0, 8978448, 0, 8978449, 0, 9043984, 0, 9043985, 0, 9109520, 0, 9109521, 0, 9175056, 0, 9175057, 0, 9240592, 0, 9240593, 0, 9306128, 0, 9306129, 0, 9371664, 0, 9371665, 0, 9437200, 0, 9437201, 0, 9502736, 0, 9502737, 0, 9568272, 0, 9568273, 0, 9633808, 0, 9633809, 0, 9699344, 0, 9699345, 0, 9764880, 0, 9764881, 0, 9830416, 0, 9830417, 0, 9830418, 0, 9895952, 0, 9895953, 0, 9961488, 0, 9961489, 0, 10027024, 0, 10027025, 0, 10092560, 0, 10092561, 0, 10158096, 0, 10158097, 0, 10223632, 0, 10223633, 0, 10289168, 0, 10289169, 0, 10354704, 0, 10354705, 0, 10420240, 0, 10420241, 0, 10485776, 0, 10485777, 0, 10551312, 0, 10551313, 0, 10551330, 0, 10616848, 0, 10616849, 0, 10616867, 0, 10682384, 0, 10682385, 0, 10747920, 0, 10747921, 0, 10813456, 0, 10813457, 0, 10878992, 0, 10878993, 0, 10944528, 0, 10944529, 0, 10944530, 0, 11010064, 0, 11010065, 0, 11010066, 0, 11075600, 0, 11075601, 0, 11141136, 0, 11141137, 0, 11206672, 0, 11206673, 0, 11272208, 0, 11272209, 0, 11272210, 0, 11337744, 0, 11337745, 0, 11403280, 0, 11403281, 0, 11468816, 0, 11468817, 0, 11534352, 0, 11534353, 0, 11599888, 0, 11599889, 0, 11665424, 0, 11665425, 0, 11730960, 0, 11730961, 0, 11796496, 0, 11796497, 0, 11862032, 0, 11862033, 0, 11927568, 0, 11927569, 0, 11993104, 0, 11993105, 0, 12058640, 0, 12058641, 0, 12124176, 0, 12124177, 0, 12189712, 0, 12189713, 0, 12255248, 0, 12255249, 0, 12320784, 0, 12320785, 0, 12386320, 0, 12386321, 0, 12451856, 0, 12451857, 0, 12451858, 0, 12517392, 0, 12517393, 0, 12582928, 0, 12582929, 0, 12648464, 0, 12648465, 0, 12714000, 0, 12714001, 0, 12779536, 0, 12779537, 0, 12845072, 0, 12845073, 0, 12910608, 0, 12910609, 0, 12976144, 0, 12976145, 0, 13041680, 0, 13041681, 0, 13107216, 0, 13107217, 0, 13172751, 0, 13172752, 0, 13172753, 0, 13238287, 0, 13238288, 0, 13238289, 0, 13303823, 0, 13303824, 0, 13303825, 0, 13369359, 0, 13369360, 0, 13369361, 0, 13434895, 0, 13434896, 0, 13434897, 0, 13500431, 0, 13500432, 0, 13500433, 0, 13565967, 0, 13565968, 0, 13631503, 0, 13631504, 0, 13697039, 0, 13697040, 0, 13762575, 0, 13762576, 0, 13828111, 0, 13828112, 0, 13893647, 0, 13893648, 0, 13959183, 0, 13959184, 0, 14024719, 0, 14024720, 0, 14090255, 0, 14090256, 0, 14155791, 0, 14155792, 0, 14221327, 0, 14221328, 0, 14286863, 0, 14286864, 0, 14352399, 0, 14352400, 0, 14417935, 0, 14417936, 0, 14483471, 0, 14483472, 0, 14549007, 0, 14549008, 0, 14614543, 0, 14614544, 0, 14680079, 0, 14680080, 0, 14745615, 0, 14745616, 0, 14811151, 0, 14811152, 0, 14876687, 0, 14876688, 0, 14942223, 0, 14942224, 0, 15007759, 0, 15007760, 0, 15073295, 0, 15073296, 0, 15073297, 0, 15138831, 0, 15138832, 0, 15138833, 0, 15204367, 0, 15204368, 0, 15204369, 0, 15269903, 0, 15269904, 0, 15269905, 0, 15335439, 0, 15335440, 0, 15335441, 0, 15400975, 0, 15400976, 0, 15400977, 0, 15466508, 89, 15466511, 0, 15466512, 0, 15466513, 0, 15532047, 0, 15532048, 0, 15532049, 0, 15597583, 0, 15597584, 0, 15597586, 318, 15597587, 35, 15597588, 35, 15597589, 175, 15597591, 133, 15597592, 133, 15597593, 133, 15597594, 133, 15597595, 133, 15663115, 89, 15663119, 0, 15663120, 0, 15663122, 305, 15663123, 22, 15663124, 22, 15663125, 162, 15663126, 89, 15663127, 133, 15663128, 133, 15663129, 133, 15663130, 133, 15663131, 133, 15728655, 0, 15728656, 0, 15728658, 44, 15728659, 3, 15728660, 64, 15728661, 125, 15728663, 133, 15728664, 133, 15728665, 133, 15728666, 133, 15728667, 133, 15794191, 0, 15794192, 0, 15794194, 260, 15794195, 99, 15794196, 64, 15794197, 125, 15794199, 133, 15794200, 133, 15794201, 133, 15794202, 133, 15794203, 133, 15859720, 97, 15859735, 133, 15859736, 133, 15859737, 133, 15859738, 133, 15859739, 133 )

[node name="white_horse" parent="TileMap" instance=ExtResource( 4 )]

transform/pos = Vector2( -104.174, 243.461 )

[node name="brown_horse" parent="TileMap" instance=ExtResource( 5 )]

transform/pos = Vector2( -7.774, 318.456 )

[node name="chicken" parent="TileMap" instance=ExtResource( 6 )]

transform/pos = Vector2( 157.001, 404.441 )

[node name="chicken1" parent="TileMap" instance=ExtResource( 6 )]

transform/pos = Vector2( 527.125, 308.209 )

[node name="chicken2" parent="TileMap" instance=ExtResource( 6 )]

transform/pos = Vector2( 132.943, 619.113 )

[node name="chicken3" parent="TileMap" instance=ExtResource( 6 )]

transform/pos = Vector2( 423.49, 694.988 )

[node name="player" parent="TileMap" instance=ExtResource( 7 )]

[node name="spawn_locations" parent="TileMap" instance=ExtResource( 8 )]

[node name="StreamPlayer" type="StreamPlayer" parent="."]

stream/stream = ExtResource( 9 )
stream/play = false
stream/loop = true
stream/volume_db = 0.0
stream/autoplay = true
stream/paused = false
stream/loop_restart_time = 0.0
stream/buffering_ms = 500

[node name="SoundFX" type="SamplePlayer" parent="."]

config/polyphony = 1
config/samples = SubResource( 1 )
default/volume_db = 0.0
default/pitch_scale = 1.0
default/pan = 0.0
default/depth = 0.0
default/height = 0.0
default/filter/type = 0
default/filter/cutoff = 5000.0
default/filter/resonance = 0.0
default/filter/gain = 0.0
default/reverb_room = 2
default/reverb_send = 0.0
default/chorus_send = 0.0

[node name="HUD" parent="." instance=ExtResource( 52 )]

[node name="spawn_clouds" parent="." instance=ExtResource( 53 )]


